2020-02-24 13:30:32          0 
2020-02-24 13:41:17       5612 2018 Conversion & APT.csv
2020-02-24 13:41:17      10815 D_BodyLengthSales.csv
2020-02-24 13:41:17       4207 D_ColdSales.csv
2020-02-24 13:41:17       6774 D_ColorSales.csv
2020-02-24 13:41:17      39593 D_DepartmentSales.csv
2020-02-24 13:41:17       9964 D_LifecycleSales.csv
2020-02-24 13:41:17      18186 D_MaterialSales.csv
2020-02-24 13:41:17       1686 D_Perc_discount.csv
2020-02-24 13:41:17       7085 D_PricepointSales.csv
2020-02-24 13:41:17       9837 D_SeasonSales.csv
2020-02-24 13:41:18       8607 D_SilhouetteSales.csv
2020-02-24 13:41:17       2019 D_sales.csv
2020-02-24 13:41:18       2734 DynamiteSalesandLoyalty.csv
2020-02-24 13:41:37   10382492 GM.csv
2020-02-24 13:41:18      19230 G_BodyLengthSales.csv
2020-02-24 13:41:18       7471 G_ColdSales.csv
2020-02-24 13:41:18      12007 G_ColorSales.csv
2020-02-24 13:41:18      65801 G_DepartmentSales.csv
2020-02-24 13:41:18      17711 G_LifecycleSales.csv
2020-02-24 13:41:18      27769 G_MaterialSales.csv
2020-02-24 13:41:18       2995 G_Perc_discount.csv
2020-02-24 13:41:18      12585 G_PricepointSales.csv
2020-02-24 13:41:19      17504 G_SeasonSales.csv
2020-02-24 13:41:19      16360 G_SilhouetteSales.csv
2020-02-24 13:41:18       3485 G_sales.csv
2020-02-24 13:41:19       4713 GarageSalesandLoyalty.csv
2020-02-24 13:41:19       7755 NumStoresinMall.csv
2020-02-24 13:41:19       3599 SellingSquareFeet.csv
2020-02-24 13:41:19      11746 StoreCCNum.csv
2020-02-24 13:41:19       4736 StoreRefD.csv
2020-02-24 13:41:20       6543 StoreRefG.csv
2020-02-24 13:41:20     115862 Total_demo_final.csv
2020-02-24 13:41:19       2535 mall grade.csv
2020-02-24 13:41:19       8732 store_lat_long.csv
2020-02-24 13:41:19       7755 store_mall_ref.csv
2020-02-24 13:41:20       5995 traffic and Cust count.csv
2020-02-24 13:41:21     888262 us_ca_weather_data.csv
